module gitlab.com/zanbar-debtors

go 1.17

require (
	github.com/go-chi/chi v1.5.4
	github.com/google/uuid v1.3.0
	github.com/rs/cors v1.8.2
	github.com/sirupsen/logrus v1.8.1
	gopkg.in/yaml.v3 v3.0.0-20200313102051-9f266ea9e77c
)

require golang.org/x/sys v0.0.0-20191026070338-33540a1f6037 // indirect

require (
	github.com/go-stack/stack v1.8.0 // indirect
	github.com/golang/snappy v0.0.1 // indirect
	github.com/klauspost/compress v1.13.6 // indirect
	github.com/pkg/errors v0.9.1 // indirect
	github.com/xdg-go/pbkdf2 v1.0.0 // indirect
	github.com/xdg-go/scram v1.0.2 // indirect
	github.com/xdg-go/stringprep v1.0.2 // indirect
	github.com/youmark/pkcs8 v0.0.0-20181117223130-1be2e3e5546d // indirect
	go.mongodb.org/mongo-driver v1.8.4
	golang.org/x/crypto v0.0.0-20201216223049-8b5274cf687f // indirect
	golang.org/x/sync v0.0.0-20190911185100-cd5d95a43a6e // indirect
	golang.org/x/text v0.3.5 // indirect
)
